%YAML 1.1
%TAG !u! tag:unity3d.com,2011:
--- !u!114 &11400000
MonoBehaviour:
  m_ObjectHideFlags: 0
  m_PrefabParentObject: {fileID: 0}
  m_PrefabInternal: {fileID: 0}
  m_GameObject: {fileID: 0}
  m_Enabled: 1
  m_EditorHideFlags: 0
  m_Script: {fileID: 11500000, guid: 6012066b9e0009c488f1eb59e485944d, type: 3}
  m_Name: Lash
  m_EditorClassIdentifier: 
  _name: Lash
  _message: A tentacle is placed at sector {0} and {1}. All players there are damaged,
    and must move away. Tentacles are impassable, and only move the next time this
    attack is used.
  _event: {fileID: 11400000, guid: 385ebebb0419f4d428b61bbec4976fa1, type: 2}
