%YAML 1.1
%TAG !u! tag:unity3d.com,2011:
--- !u!114 &11400000
MonoBehaviour:
  m_ObjectHideFlags: 0
  m_PrefabParentObject: {fileID: 0}
  m_PrefabInternal: {fileID: 0}
  m_GameObject: {fileID: 0}
  m_Enabled: 1
  m_EditorHideFlags: 0
  m_Script: {fileID: 11500000, guid: 6012066b9e0009c488f1eb59e485944d, type: 3}
  m_Name: Suck
  m_EditorClassIdentifier: 
  _name: Suck
  _message: All players and supplies are drawn closer to the Kraken. If a player reaches
    the center, they take damage.
  _event: {fileID: 11400000, guid: 6dc5186bb8c72f642854eb85bddfb3e0, type: 2}
